{
    "reply": "{   \"currentCustomerNumber\": null,   \"currentCustomerTel\": null,   \"currentStep\": \"lookup\",   \"lookupType\": \"residential\",   \"customerId\": \"\",   \"salesAgreementId\": \"\",   \"lookupPhoneNumber\": \"(211) 111-1113\",   \"phoneNumber\": null,   \"invoiceId\": null,   \"isRegisterByProp\": true,   \"lookupResOption\": \"address\",   \"lookupComOption\": \"salesAgreementId\",   \"address\": {     \"address1\": \"2798 Glendale Avenue Woodland Hills, CA 91303\",     \"address2\": null,     \"city\": \"Woodland Hills\",     \"state\": \"CA\",     \"zipcode\": \"91303\",     \"typeCode\": null   },   \"foundPartyList\": [],   \"email\": null,   \"isSendEmail\": false,   \"login\": null,   \"password\": null,   \"firstName\": null,   \"lastName\": null,   \"recaptchaToken\": null,   \"easyRegistrationFailed\": true,   \"GAEventLabel\": \"Easy Registration Validation Failure\",   \"errorMessages\": [     {       \"errorMessage\": \"We\\u0026#39;re sorry - we\\u0026#39;re experiencing some technical issues at the moment. Please try refreshing your browser or try again soon.\",       \"messageColor\": null     }   ],   \"informationalMessages\": [],   \"fieldValidationErrors\": [],   \"redirectRequest\": false,   \"redirectURL\": null }"
}
