{
    "reply": "{   \"serviceNumber\": \"15369771\",   \"productSaleId\": null,   \"customerNumber\": \"10397805\",   \"identityId\": null,   \"description\": \"Ultimate Protection Package\",   \"yearsServiced\": null,   \"effectiveDate\": \"09\/26\/2015\",   \"serviceLine\": \"UPP\",   \"serviceLineRoot\": \"BUNDLES\",   \"serviceBranch\": \"2523\",   \"workOrderActivityId\": null,   \"scanMasterUrl\": null,   \"followupServiceLines\": [     \"UPPP\",     \"UPPD\",     \"UPPE\"   ],   \"followupTechnicianNumber\": \"22801\",   \"followupServiceLine\": \"UPPD\",   \"followupServiceDescription\": \"Dual Adv Protection Pest Regular\",   \"submitting\": false,   \"canReschedule\": true,   \"rescheduleLoaded\": false,   \"rescheduleStep\": \"appointment\",   \"rescheduleDates\": [     {       \"date\": \"02\/05\/2019\",       \"times\": [         {           \"time\": 10,           \"employeeNumber\": \"22801\"         },         {           \"time\": 13,           \"employeeNumber\": \"22801\"         },         {           \"time\": 8,           \"employeeNumber\": \"22801\"         }       ]     },     {       \"date\": \"02\/08\/2019\",       \"times\": [         {           \"time\": 13,           \"employeeNumber\": \"22801\"         }       ]     },     {       \"date\": \"02\/02\/2019\",       \"times\": [         {           \"time\": 10,           \"employeeNumber\": \"22801\"         },         {           \"time\": 13,           \"employeeNumber\": \"22801\"         }       ]     },     {       \"date\": \"02\/01\/2019\",       \"times\": [         {           \"time\": 8,           \"employeeNumber\": \"22801\"         },         {           \"time\": 13,           \"employeeNumber\": \"22801\"         }       ]     },     {       \"date\": \"02\/09\/2019\",       \"times\": [         {           \"time\": 8,           \"employeeNumber\": \"22801\"         },         {           \"time\": 10,           \"employeeNumber\": \"22801\"         }       ]     },     {       \"date\": \"02\/06\/2019\",       \"times\": [         {           \"time\": 10,           \"employeeNumber\": \"22801\"         },         {           \"time\": 13,           \"employeeNumber\": \"22801\"         }       ]     },     {       \"date\": \"02\/04\/2019\",       \"times\": [         {           \"time\": 13,           \"employeeNumber\": \"22801\"         }       ]     },     {       \"date\": \"02\/07\/2019\",       \"times\": [         {           \"time\": 8,           \"employeeNumber\": \"22801\"         },         {           \"time\": 13,           \"employeeNumber\": \"22801\"         }       ]     }   ],   \"rescheduleTimes\": [     8,     10,     13   ],   \"rescheduleSelectedDate\": null,   \"rescheduleSelectedTime\": null,   \"rescheduleSelectedEmployeeNumber\": null,   \"rescheduleContactFname\": \"Nathan\",   \"rescheduleContactLname\": \"Chantara\",   \"rescheduleContactPhone\": null,   \"rescheduleContactDate\": \"\",   \"rescheduleContactTime\": \"AM\",   \"reschedulePestsText\": null,   \"reschedulePests\": null,   \"rescheduleLocationsText\": null,   \"rescheduleLocations\": null,   \"rescheduleNote\": \"\",   \"nextServiceDueDate\": \"December 2018\",   \"serviceFrequency\": [     \"Termite Bait - Annual\",     \"Pest Control - Quarterly\"   ],   \"updatedMyServices\": [],   \"errorMessages\": [],   \"informationalMessages\": [],   \"fieldValidationErrors\": [],   \"redirectRequest\": false,   \"redirectURL\": null }"
}
